{
  "Barron's": {
    "domain": "barrons.com",
    "allow_cookies": 1,
    "block_regex": "(cdn\\.cxense\\.com\\/|cdn\\.ampproject\\.org\\/v\\d\\/amp-subscriptions-.+\\.js)",
    "upd_version": "3.5.1.7"
  },
  "Bloomberg": {
    "domain": "bloomberg.com",
    "allow_cookies": 1,
    "block_regex": "(\\.cm\\.bloomberg\\.com\\/|assets\\.bwbx\\.io\\/s\\d\\/javelin\\/.+\\/transporter\\/)",
    "upd_version": "3.2.7.1"
  },
  "CartaCapital": {
    "domain": "cartacapital.com.br",
    "allow_cookies": 1,
    "cs_code": "[{\"cond\":\"div.contentSoft\", \"rm_attrib\":\"class\"}]",
    "upd_version": "3.5.5.7"
  },
  "Condé Nast magazines": {
    "domain": "###_usa_conde_nast",
    "group": [
      "architecturaldigest.com",
      "bonappetit.com",
      "cntraveler.com",
      "epicurious.com",
      "gq.com",
      "newyorker.com",
      "vanityfair.com",
      "vogue.co.uk",
      "vogue.com",
      "wired.com"
    ],
    "allow_cookies": 1,
    "block_regex": "\\.{domain}\\/journey\\/compiler\\/build-.+\\.js",
    "upd_version": "3.5.6.1"
  },
  "Daily Mail UK": {
    "domain": "dailymail.co.uk",
    "allow_cookies": 1,
    "block_regex": "\\/zephr\\/feature",
    "upd_version": "3.5.4.6"
  },
  "Der Aktionär": {
    "domain": "deraktionaer.de",
    "allow_cookies": 1,
    "ld_archive_is": "div#paywall-container|div#article-body",
    "upd_version": "3.5.4.8"
  },
  "FewCents": {
    "domain": "fewcents.co",
    "allow_cookies": 1,
    "block_regex_general": "\\.fewcents\\.co\\/.+\\/paywall.*\\.js",
    "upd_version": "3.5.4.5"
  },
  "Grupo Prensa Ibérica": {
    "domain": "###_es_epiberica",
    "group": [
      "diariodemallorca.es",
      "eldia.es",
      "elperiodico.com",
      "epe.es",
      "farodevigo.es",
      "informacion.es",
      "laprovincia.es",
      "levante-emv.com",
      "lne.es",
      "mallorcazeitung.es",
      "superdeporte.es"
    ],
    "allow_cookies": 1,
    "block_regex": "(\\.piano\\.io\\/|cdn\\.ampproject\\.org\\/v\\d\\/amp-access-.+\\.js)",
    "cs_code": "[{\"cond\":\"div.ft-helper-closenews\", \"rm_attrib\":\"class\"}]",
    "upd_version": "3.5.4.1"
  },
  "Haaretz Group": {
    "domain": "###_il_haaretz_group",
    "group": [
      "haaretz.co.il",
      "haaretz.com",
      "themarker.com"
    ],
    "allow_cookies": 1,
    "block_regex": "\\.co(m|\\.il)\\/.+\\/magazine\\/page-.+\\.js",
    "cs_dompurify": 1,
    "upd_version": "3.5.6.2"
  },
  "Kurier.at": {
    "domain": "kurier.at",
    "allow_cookies": 1,
    "block_regex": "\\.tinypass\\.com\\/",
    "cs_code": "[{\"cond\":\"div#cfs-paywall-container\", \"rm_elem\":1, \"elems\":[{\"cond\":\"div.paywall\", \"rm_attrib\":\"class|style\"}]}]",
    "upd_version": "3.5.5.2"
  },
  "Los Angeles Times": {
    "domain": "latimes.com",
    "allow_cookies": 1,
    "block_regex": "\\.californiatimes\\.com\\/meteringjs",
    "cs_block": 1,
    "upd_version": "3.5.5.4"
  },
  "National Geographic USA": {
    "domain": "nationalgeographic.com",
    "allow_cookies": 1,
    "block_regex": "cdn\\.registerdisney\\.go\\.com\\/",
    "random_ip": "eu",
    "upd_version": "3.5.4.2"
  },
  "San Diego Union Tribune": {
    "domain": "sandiegouniontribune.com",
    "allow_cookies": 1,
    "block_regex": "\\.californiatimes\\.com\\/meteringjs",
    "cs_block": 1,
    "upd_version": "3.5.5.4"
  },
  "Sophi.io": {
    "domain": "sophi.io",
    "allow_cookies": 1,
    "block_regex_general": "\\.sophi\\.io\\/",
    "excluded_domains": ["sophi.io"],
    "upd_version": "3.5.4.6"
  },
  "The Indian Express": {
    "domain": "indianexpress.com",
    "allow_cookies": 1,
    "block_regex": "(\\/indianexpress\\/js\\/evolok\\/|\\.fewcents\\.co\\/.+\\/paywall.*\\.js|cdn\\.ampproject\\.org\\/v\\d\\/amp-access-.+\\.js)",
    "upd_version": "3.5.4.5"
  },
  "The New York Times": {
    "domain": "nytimes.com",
    "allow_cookies": 1,
    "block_regex": "(\\.nytimes\\.com\\/meter\\.js|mwcm\\.nyt\\.com\\/.+\\.js|cooking\\.nytimes\\.com\\/api\\/.+\\/access)",
    "useragent": "googlebot",
    "upd_version": "3.1.4.0"
  },
  "Vogue Business (member-text only)": {
    "domain": "voguebusiness.com",
    "block_regex": "\\.voguebusiness\\.com\\/journey\\/compiler\\/build-.+\\.js",
    "ld_json": "aside[class^='PaywallInlineBarrierWrapper']|div.body__inner-container",
    "remove_cookies_select_drop": ["userId"],
    "upd_version": "3.5.4.4"
  },
  "Ynet": {
    "domain": "ynet.co.il",
    "allow_cookies": 1,
    "block_regex": "\\.tinypass\\.com\\/",
    "upd_version": "3.5.4.7"
  }
}
